{
  "154ec1bfbd7f5336ef9a59d4e0431015a0c8b50d0d97c8d56ab2d8eb596dedd2": true,
  "1c074b593bab19472a7ce527d73c4889e58d1a0630a1ce9861f0b45cb9d4ea93": true,
  "a2c0047841cc60710b47867336c1d3dafe4da59d1fa94db59c1b251ebf1e7ce6": true,
  "0c2bb9385b66f6f38d023103a554781044969b4464696c0d089ceb1a64ea7367": true,
  "ad454bfcdd75c421ebc9c5e860aa6a37efedec5e8ade96468939007d3283a7fa": true
}